[
  {
    "name": "Jammu and Kashmir",
    "code": "JK"
  },
  {
    "name": "Himachal Pradesh",
    "code": "HP"
  },
  {
    "name": "Punjab",
    "code": "PB"
  },
  {
    "name": "Chandigarh",
    "code": "CH"
  },
  {
    "name": "Uttarakhand",
    "code": "UT"
  },
  {
    "name": "Haryana",
    "code": "HR"
  },
  {
    "name": "Delhi",
    "code": "DL"
  },
  {
    "name": "Rajasthan",
    "code": "RJ"
  },
  {
    "name": "Uttar Pradesh",
    "code": "UP"
  },
  {
    "name": "Bihar",
    "code": "BR"
  },
  {
    "name": "Sikkim",
    "code": "SK"
  },
  {
    "name": "Arunachal Pradesh",
    "code": "AR"
  },
  {
    "name": "Nagaland",
    "code": "NL"
  },
  {
    "name": "Manipur",
    "code": "MN"
  },
  {
    "name": "Mizoram",
    "code": "MZ"
  },
  {
    "name": "Tripura",
    "code": "TR"
  },
  {
    "name": "Meghalaya",
    "code": "ML"
  },
  {
    "name": "Assam",
    "code": "AS"
  },
  {
    "name": "West Bengal",
    "code": "WB"
  },
  {
    "name": "Jharkhand",
    "code": "JH"
  },
  {
    "name": "Odisha",
    "code": "OD"
  },
  {
    "name": "Chhattisgarh",
    "code": "CG"
  },
  {
    "name": "Madhya Pradesh",
    "code": "MP"
  },
  {
    "name": "Gujarat",
    "code": "GJ"
  },
  {
    "name": "Daman and Diu",
    "code": "DD"
  },
  {
    "name": "Dadra and Nagar Haveli",
    "code": "DN"
  },
  {
    "name": "Maharashtra",
    "code": "MH"
  },
  {
    "name": "Andhra Pradesh",
    "code": "AD"
  },
  {
    "name": "Karnataka",
    "code": "KA"
  },
  {
    "name": "Goa",
    "code": "GA"
  },
  {
    "name": "Lakshadweep",
    "code": "LD"
  },
  {
    "name": "Kerala",
    "code": "KL"
  },
  {
    "name": "Tamil Nadu",
    "code": "TN"
  },
  {
    "name": "Pondicherry",
    "code": "PY"
  },
  {
    "name": "Andaman & Nicobar Islands",
    "code": "AN"
  },
  {
    "name": "Telangana",
    "code": "TS"
  }
]